{
    "solargraph.useBundler": false,
    "solargraph.diagnostics": true,
    "solargraph.formatting": true,
    "solargraph.hover": true,
    "python.jediEnabled": false,
    "suggest.echodocSupport": true,
    "languageserver": {
        "ccls": {
            "command": "ccls",
            "filetypes": ["c", "cpp", "objc", "objcpp"],
            "rootPatterns": [".ccls", "compile_commands.json", ".vim/", ".git/", ".hg/"],
            "initializationOptions": {
                "cache": {
                    "directory": "/tmp/ccls"
                }
            }
        }
    }
}
