[
    // Place your key bindings in this file to overwrite the defaults
    {
        "key": "ctrl+alt+s",
        "command": "saveAll"
    },
    {
        "key": "ctrl+g space",
        "command": "gitlens.diffWithPrevious",
        "when": "editorTextFocus"
    },
    {
        "key": "ctrl+up",
        "command": "notebook.cell.collapseCellOutput",
        "when": "notebookEditorFocused"
    },
    {
        "key": "ctrl+down",
        "command": "notebook.cell.expandCellOutput",
        "when": "notebookEditorFocused"
    },
    {
        "key": "ctrl+f9",
        "command": "editor.debug.action.conditionalBreakpoint",
        "when": "debuggersAvailable && editorTextFocus"
    },
    {
        "key": "ctrl+shift+f10",
        "command": "debug.jumpToCursor",
        "when": "debugState == 'stopped'"
    },
    {
        "key": "ctrl+f10",
        "command": "editor.debug.action.runToCursor",
        "when": "debugState == 'stopped'"
    },
    {
        "key": "ctrl+alt+enter",
        "command": "sqltools.executeCurrentQuery",
        "when": "editorTextFocus && editorLangId == sql"
    },
    {
        "key": "ctrl+w",
        "command": "extension.vim_ctrl+w",
        "when": "editorTextFocus && vim.active && !inDebugRepl"
    },
    {
        "key": "ctrl+m",
        "command": "-editor.action.toggleTabFocusMode"
    },
    {
        "key": "ctrl+v",
        "command": "extension.vim_ctrl+v",
        "when": "vim.mode == Normal && !inQuickOpen && editorTextFocus",
    },
    {
        "key": "ctrl+k g",
        "command": "extension.googleSearch"
    },
    {
        "key": "ctrl+r",
        "command": "extension.vim_ctrl+r",
        "when": "editorFocus && vim.active && !inDebugRepl && vim.mode != Insert"
    },
    {
        "key": "f4",
        "command": "toggleVim"
    },
    {
        "key": "ctrl+w",
        "command": "-workbench.action.closeActiveEditor"
    },
    {
        "key": "ctrl+o",
        "command": "workbench.action.navigateBack"
    },
    {
        "key": "ctrl+i",
        "command": "workbench.action.navigateForward"
    },
    {
        "key": "ctrl+f",
        "command": "cursorPageDown",
        "when": "inputFocus"
    },
    {
        "key": "ctrl+b",
        "command": "cursorPageUp",
        "when": "inputFocus"
    },
    {
        "key": "escape",
        "command": "notebook.cell.quitEdit",
        "when": "inputFocus && notebookEditorFocused && !editorHasMultipleSelections && !editorHasSelection && !editorHoverVisible && vim.mode != Insert"
    },
    {
        "key": "ctrl+[",
        "command": "notebook.cell.quitEdit",
        "when": "inputFocus && notebookEditorFocused && !editorHasMultipleSelections && !editorHasSelection && !editorHoverVisible && vim.mode != Insert"
    },
    {
        "key": "f",
        "command": "notebook.find",
        "when": "notebookEditorFocused && !inputFocus"
    },
    {
        "key": "delete",
        "command": "extension.vim_delete",
        "when": "editorTextFocus && vim.active && !inDebugRepl"
    },
    {
        "key": "k",
        "command": "list.focusUp",
        "when": "notebookEditorFocused && !inputFocus"
    },
    {
        "key": "tab",
        "command": "extension.vim_tab",
        "when": "editorFocus && vim.active && !inDebugRepl && vim.mode != Insert"
    },
    {
        "key": "j",
        "command": "list.focusDown",
        "when": "notebookEditorFocused && !inputFocus"
    },
    {
        "key": "shift+tab",
        "command": "extension.vim_shift+tab",
        "when": "editorFocus && vim.active && !inDebugRepl && vim.mode != Insert"
    },
    {
        "key": "a",
        "command": "notebook.cell.insertCodeCellAbove",
        "when": "notebookEditorFocused && !inputFocus"
    },
    {
        "key": "left",
        "command": "extension.vim_left",
        "when": "editorTextFocus && vim.active && !inDebugRepl"
    },
    {
        "key": "b",
        "command": "notebook.cell.insertCodeCellBelow",
        "when": "notebookEditorFocused && !inputFocus"
    },
    {
        "key": "right",
        "command": "extension.vim_right",
        "when": "editorTextFocus && vim.active && !inDebugRepl"
    },
    {
        "key": "d d",
        "command": "notebook.cell.delete",
        "when": "notebookEditorFocused && !inputFocus"
    },
    {
        "key": "z",
        "command": "notebook.undo",
        "when": "notebookEditorFocused && !inputFocus"
    },
    {
        "key": "c",
        "command": "notebook.cell.copy",
        "when": "notebookEditorFocused && !inputFocus"
    },
    {
        "key": "g g",
        "command": "list.focusFirst",
        "when": "listFocus && !inputFocus"
    },
    {
        "key": "x",
        "command": "notebook.cell.cut",
        "when": "notebookEditorFocused && !inputFocus"
    },
    {
        "key": "h",
        "command": "list.collapse",
        "when": "listFocus && !inputFocus"
    },
    {
        "key": "v",
        "command": "notebook.cell.paste",
        "when": "notebookEditorFocused && !inputFocus"
    },
    {
        "key": "j",
        "command": "list.focusDown",
        "when": "listFocus && !inputFocus"
    },
    {
        "key": "ctrl+shift+-",
        "command": "notebook.cell.split",
        "when": "editorTextFocus && inputFocus && notebookEditorFocused"
    },
    {
        "key": "ctrl+k ctrl+c",
        "command": "workbench.action.toggleCenteredLayout"
    },
    {
        "key": "ctrl+.",
        "command": "workbench.action.terminal.toggleTerminal",
        "when": "terminalFocus"
    },
    {
        "key": "ctrl+shift+.",
        "command": "workbench.action.terminal.toggleTerminal",
        "when": "terminalFocus"
    },
    {
        "key": "ctrl+,",
        "command": "workbench.action.focusActiveEditorGroup",
        "when": "!editorFocus || historyNavigationWidget"
    },
    {
        "key": "ctrl+,",
        "command": "editor.action.quickFix",
        "when": "editorFocus && !historyNavigationWidget",
    },
    {
        "key": "ctrl+k ctrl+enter",
        "command": "workbench.action.terminal.runSelectedText",
        "when": "editorFocus && !historyNavigationWidget",
    },
    {
        "key": "ctrl+enter",
        "command": "workbench.action.terminal.runSelectedText",
        "when": "editorFocus && !historyNavigationWidget && !notebookEditorFocused"
    },
    {
        "key": "ctrl+enter",
        "command": "sqltools.executeQuery",
        "when": "editorFocus && !historyNavigationWidget && editorLangId == sql"
    },
    {
        "key": "ctrl+enter",
        "command": "language-julia.executeCodeBlockOrSelection",
        "when": "editorFocus && !historyNavigationWidget && editorLangId == julia"
    },
    {
        "key": "ctrl+,",
        "command": "-workbench.action.openSettings",
    },
    {
        "key": "ctrl+.",
        "command": "workbench.action.terminal.focus",
        "when": "!terminalFocus"
    },
    {
        "key": "ctrl+shift+.",
        "command": "workbench.action.toggleMaximizedPanel",
        "when": "!terminalFocus"
    },
    {
        "key": "shift+enter",
        "command": "list.selectAndPreserveFocus",
        "when": "listFocus"
    },
    {
        "key": "alt+j",
        "command": "list.focusDown",
        "when": "listFocus"
    },
    {
        "key": "alt+k",
        "command": "list.focusUp",
        "when": "listFocus"
    },
    {
        "key": "alt+l",
        "command": "list.selectAndPreserveFocus",
        "when": "listFocus"
    },
    {
        "key": "l",
        "command": "list.selectAndPreserveFocus",
        "when": "listFocus && !inputFocus"
    },
    {
        "key": "alt+h",
        "command": "list.collapse",
        "when": "listFocus"
    },
    {
        "key": "alt+j",
        "command": "search.focus.nextInputBox",
        "when": "inputBoxFocus && searchViewletVisible"
    },
    {
        "key": "alt+k",
        "command": "search.action.focusSearchFromResults",
        "when": "firstMatchFocus && searchViewletVisible"
    },
    {
        "key": "alt+k",
        "command": "search.focus.previousInputBox",
        "when": "inputBoxFocus && searchViewletVisible"
    },
    {
        "key": "ctrl+alt+j",
        "command": "list.focusDown",
        "when": "listFocus"
    },
    {
        "key": "ctrl+alt+k",
        "command": "list.focusUp",
        "when": "listFocus"
    },
    {
        "key": "ctrl+alt+l",
        "command": "list.expand",
        "when": "listFocus"
    },
    {
        "key": "ctrl+alt+h",
        "command": "list.collapse",
        "when": "listFocus"
    },
    {
        "key": "ctrl+alt+j",
        "command": "search.focus.nextInputBox",
        "when": "inputBoxFocus && searchViewletVisible"
    },
    {
        "key": "ctrl+e",
        "command": "search.action.openInEditor",
        "when": "searchViewletVisible"
    },
    {
        "key": "ctrl+alt+k",
        "command": "search.focus.previousInputBox",
        "when": "inputBoxFocus && searchViewletVisible"
    },
    {
        "key": "ctrl+\\",
        "command": "workbench.action.toggleSidebarVisibility"
    },
    {
        "key": "ctrl+\\",
        "command": "workbench.files.action.showActiveFileInExplorer",
        "when": "!explorerViewletFocus && editorFocus"
    },
    {
        "key": "ctrl+\\",
        "command": "workbench.files.action.focusFilesExplorer",
        "when": "terminalFocus"
    },
    {
        "key": "ctrl+\\",
        "command": "workbench.files.action.focusFilesExplorer",
        "when": "!editorFocus && !explorerViewletFocus"
    },
    {
        "key": "alt+\\",
        "command": "workbench.files.action.focusFilesExplorer",
    },
    {
        "key": "ctrl+k ctrl+\\",
        "command": "workbench.files.action.focusFilesExplorer",
    },
    {
        "key": "ctrl+h",
        "command": "list.collapseAll",
        "when": "explorerViewletFocus"
    },
    {
        "key": "ctrl+/",
        "command": "filesExplorer.findInFolder",
        "when": "explorerViewletVisible && filesExplorerFocus"
    },
    {
        "key": "ctrl+r",
        "command": "renameFile",
        "when": "explorerViewletVisible && filesExplorerFocus"
    },
    {
        "key": "ctrl+d",
        "command": "moveFileToTrash",
        "when": "explorerViewletVisible && filesExplorerFocus"
    },
    {
        "key": "ctrl+c",
        "command": "filesExplorer.copy",
        "when": "explorerViewletVisible && filesExplorerFocus"
    },
    {
        "key": "ctrl+v",
        "command": "filesExplorer.paste",
        "when": "explorerViewletVisible && filesExplorerFocus"
    },
    {
        "key": "ctrl+o",
        "command": "revealFileInOS",
        "when": "explorerViewletFocus && explorerViewletVisible"
    },
    {
        "key": "ctrl+n",
        "command": "explorer.newFile",
        "when": "explorerViewletFocus && explorerViewletVisible"
    },
    {
        "key": "ctrl+shift+n",
        "command": "explorer.newFolder",
        "when": "explorerViewletFocus && explorerViewletVisible"
    },
    {
        "key": "ctrl+h",
        "command": "list.collapseAll",
        "when": "explorerViewletFocus && explorerViewletVisible"
    },
    {
        "key": "ctrl+c",
        "command": "workbench.action.terminal.copySelection",
        "when": "terminalFocus && terminalTextSelected"
    },
    {
        "key": "ctrl+shift+v",
        "command": "workbench.action.terminal.paste",
        "when": "terminalFocus"
    },
    {
        "key": "ctrl+/",
        "command": "workbench.action.toggleMaximizedPanel",
        "when": "terminalFocus"
    },
    {
        "key": "ctrl+tab",
        "command": "workbench.action.terminal.focusNext",
        "when": "terminalFocus"
    },
    {
        "key": "ctrl+shift+t",
        "command": "workbench.action.terminal.new",
        "when": "terminalFocus"
    },
    {
        "key": "ctrl+q",
        "command": "workbench.action.terminal.kill",
        "when": "terminalFocus"
    },
    {
        "key": "ctrl+v",
        "command": "-workbench.action.terminal.paste",
        "when": "terminalFocus"
    },
    {
        "key": "ctrl+alt+f",
        "command": "workbench.view.search.focus"
    },
    {
        "key": "ctrl+alt+e",
        "command": "search.action.openEditor"
    },
    {
        "key": "ctrl+alt+e",
        "command": "search.action.openNewEditor",
        "args": {
            "triggerSearch": true,
            "wholeWord": true,
            "focusResults": true
        },
        "when": "editorHasSelection"
    },
    {
        "key": "ctrl+alt+e",
        "command": "search.action.focusQueryEditorWidget",
        "when": "inSearchEditor"
    },
    {
        "key": "ctrl+a",
        "command": "selectAllSearchEditorMatches",
        "when": "inSearchEditor && !inputBoxFocus"
    },
    {
        "key": "ctrl+s",
        "command": "searchEditorApplyChanges.apply",
        "when": "inSearchEditor"
    },
    {
        "key": "alt+d",
        "command": "workbench.action.search.toggleQueryDetails",
        "when": "inSearchEditor || searchViewletFocus"
    },
    {
        "key": "alt+f",
        "command": "actions.find"
    },
    {
        "key": "alt+shift+f",
        "command": "editor.action.previousMatchFindAction",
        "when": "editorFocus && findWidgetVisible && findInputFocussed"
    },
    {
        "key": "alt+f",
        "command": "editor.action.nextMatchFindAction",
        "when": "editorFocus && findWidgetVisible && findInputFocussed"
    },
    {
        "key": "alt+n",
        "command": "history.showNext",
        "when": "historyNavigationEnabled && historyNavigationWidget"
    },
    {
        "key": "alt+p",
        "command": "history.showPrevious",
        "when": "historyNavigationEnabled && historyNavigationWidget"
    },
    {
        "key": "ctrl+[",
        "command": "closeFindWidget",
        "when": "editorFocus && findWidgetVisible"
    },
    {
        "key": "alt+l",
        "command": "toggleFindInSelection",
        "when": "editorFocus && findWidgetVisible"
    },
    {
        "key": "alt+j",
        "command": "editor.action.nextMatchFindAction",
        "when": "editorFocus && findWidgetVisible"
    },
    {
        "key": "alt+k",
        "command": "editor.action.previousMatchFindAction",
        "when": "editorFocus && findWidgetVisible"
    },
    {
        "key": "ctrl+k shift+/",
        "command": "editor.action.quickFix",
        "when": "editorHasCodeActionsProvider && editorTextFocus && !editorReadonly"
    },
    {
        "key": "ctrl+;",
        "command": "workbench.action.showCommands"
    },
    {
        "key": "ctrl+shift+p",
        "command": "-workbench.action.showCommands"
    },
    {
        "key": "ctrl+k q",
        "command": "workbench.action.closeActiveEditor"
    },
    {
        "key": "ctrl+q",
        "command": "workbench.action.closeActiveEditor"
    },
    {
        "key": "ctrl+k ctrl+r",
        "command": "workbench.action.openRecent"
    },
    {
        "key": "ctrl+r",
        "command": "-workbench.action.openRecent"
    },
    {
        "key": "ctrl+j",
        "command": "-workbench.action.togglePanel"
    },
    {
        "key": "ctrl+k tab",
        "command": "workbench.action.quickSwitchWindow"
    },
    {
        "key": "ctrl+alt+f",
        "command": "workbench.action.terminal.focusFind",
        "when": "terminalFocus"
    },
    {
        "key": "ctrl+f",
        "command": "-workbench.action.terminal.focusFindWidget",
        "when": "terminalFocus"
    },
    {
        "key": "ctrl+k ctrl+s",
        "command": "quicktags.selectTags"
    },
    {
        "key": "ctrl+k s",
        "command": "workbench.action.toggleStatusbarVisibility"
    },
    {
        "key": ".",
        "command": ""
    },
    {
        "key": "ctrl+k t",
        "command": "workbench.action.tasks.runTask"
    },
    {
        "key": "ctrl+k ctrl+n",
        "command": "editor.action.marker.nextInFiles"
    },
    {
        "key": "ctrl+k ctrl+p",
        "command": "editor.action.marker.prevInFiles"
    },
    {
        "key": "ctrl+k n",
        "command": "search.action.focusNextSearchResult",
        "when": "hasSearchResult  || inSearchEditor"
    },
    {
        "key": "alt+j",
        "command": "search.action.focusNextSearchResult",
        "when": "inSearchEditor"
    },
    {
        "key": "alt+k",
        "command": "search.action.focusPreviousSearchResult",
        "when": "inSearchEditor"
    },
    {
        "key": "ctrl+k p",
        "command": "search.action.focusPreviousSearchResult",
        "when": "hasSearchResult || inSearchEditor"
    },
    {
        "key": "ctrl+p",
        "command": "workbench.action.quickOpenNavigatePrevious",
        "when": "inQuickOpen"
    },
    {
        "key": "ctrl+n",
        "command": "workbench.action.quickOpenNavigateNext",
        "when": "inQuickOpen"
    },
    {
        "key": "alt+k",
        "command": "workbench.action.quickOpenNavigatePrevious",
        "when": "inQuickOpen"
    },
    {
        "key": "alt+j",
        "command": "workbench.action.quickOpenNavigateNext",
        "when": "inQuickOpen"
    },
    {
        "key": "alt+h",
        "command": "workbench.action.closeQuickOpen",
        "when": "inQuickOpen"
    },
    {
        "key": "ctrl+h",
        "command": "workbench.action.closeQuickOpen",
        "when": "inQuickOpen"
    },
    {
        "key": "ctrl+k o",
        "command": "-workbench.action.files.showOpenedFileInNewWindow"
    },
    {
        "key": "ctrl+k h",
        "command": "C_Cpp.SwitchHeaderSource",
        "when": "editorTextFocus && editorLangId == 'cpp'"
    },
    {
        "key": "ctrl+k h",
        "command": "C_Cpp.SwitchHeaderSource",
        "when": "editorTextFocus && editorLangId == 'c'"
    },
    {
        "key": "alt+o",
        "command": "-C_Cpp.SwitchHeaderSource",
        "when": "editorTextFocus && editorLangId == 'cpp'"
    },
    {
        "key": "alt+o",
        "command": "-C_Cpp.SwitchHeaderSource",
        "when": "editorTextFocus && editorLangId == 'c'"
    },
    {
        "key": "ctrl+shift+\\",
        "command": "workbench.action.toggleActivityBarVisibility"
    },
    {
        "key": "ctrl+k ctrl+z",
        "command": "workbench.action.evenEditorWidths"
    },
    {
        "key": "ctrl+k z",
        "command": "workbench.action.minimizeOtherEditors"
    },
    {
        "key": "ctrl+=",
        "command": "-workbench.action.zoomIn"
    },
    {
        "key": "ctrl+-",
        "command": "-workbench.action.zoomOut"
    },
    {
        "key": "ctrl+alt+=",
        "command": "workbench.action.zoomIn"
    },
    {
        "key": "ctrl+alt+-",
        "command": "workbench.action.zoomOut"
    },
    {
        "key": "ctrl+alt+0",
        "command": "workbench.action.zoomReset"
    },
    {
        "key": "ctrl+shift+=",
        "command": "editor.action.fontZoomIn"
    },
    {
        "key": "ctrl+shift+-",
        "command": "editor.action.fontZoomOut"
    },
    {
        "key": "ctrl+shift+0",
        "command": "editor.action.fontZoomReset"
    },
    {
        "key": "ctrl+k m",
        "command": "bookmarks.toggleLabeled",
        "when": "editorFocus"
    },
    // {
    //     "key": "ctrl+k ctrl+b",
    //     "command": "bookmarksExplorer.focus",
    //     "when": "editorFocus"
    // },
    {
        "key": "ctrl+k ctrl+m",
        "command": "bookmarks.toggle",
        "when": "editorFocus"
    },
    {
        "key": "ctrl+k l",
        "command": "workbench.action.editor.changeLanguageMode",
        "when": "editorFocus"
    },
    {
        "key": "ctrl+k =",
        "command": "cSpell.toggleEnableSpellChecker"
    },
    {
        "key": "ctrl+k ctrl+l",
        "command": "bookmarks.listFromAllFiles",
        "when": "editorFocus"
    },
    {
        "key": "ctrl+k ;",
        "command": "outline.focus"
    },
    {
        "key": "ctrl+k shift+'",
        "command": "workbench.action.splitEditorOrthogonal",
        "when": "editorFocus"
    },
    {
        "key": "ctrl+k shift+5",
        "command": "workbench.action.splitEditor",
        "when": "editorFocus"
    },
    {
        "key": "ctrl+g x",
        "command": "gitlens.diffWithRevisionFrom",
    },
    {
        "key": "ctrl+g z",
        "command": "gitlens.toggleZenMode",
    },
    {
        "key": "ctrl+g ctrl+z",
        "command": "gitlens.toggleReviewMode",
    },
    {
        "key": "ctrl+g ctrl+o",
        "command": "gitlens.openWorkingFile",
        "when": "editorFocus"
    },
    {
        "key": "ctrl+g ctrl+n",
        "command": "workbench.action.editor.nextChange",
        "when": "editorFocus"
    },
    {
        "key": "ctrl+g ctrl+r",
        "command": "git.revertSelectedRanges",
        "when": "editorFocus"
    },
    {
        "key": "ctrl+g ctrl+p",
        "command": "workbench.action.editor.previousChange",
        "when": "editorFocus"
    },
    {
        "key": "ctrl+g ctrl+p",
        "command": "workbench.action.compareEditor.previousChange",
        "when": "textCompareEditorVisible"
    },
    {
        "key": "ctrl+g ctrl+n",
        "command": "workbench.action.compareEditor.nextChange",
        "when": "textCompareEditorVisible"
    },
    {
        "key": "ctrl+g n",
        "command": "merge-conflict.next",
        "when": "editorFocus"
    },
    {
        "key": "ctrl+g p",
        "command": "merge-conflict.previous",
        "when": "editorFocus"
    },
    {
        "key": "ctrl+g i",
        "command": "merge-conflict.accept.incoming",
        "when": "editorFocus"
    },
    {
        "key": "ctrl+g o",
        "command": "merge-conflict.accept.current",
        "when": "editorFocus"
    },
    {
        "key": "ctrl+g u",
        "command": "merge-conflict.accept.both",
        "when": "editorFocus"
    },
    {
        "key": "ctrl+g o",
        "command": "git.openFile",
        "when": "textCompareEditorVisible"
    },
    {
        "key": "ctrl+g g",
        "command": "workbench.view.scm",
    },
    {
        "key": "ctrl+g d",
        "command": "git.openChange"
    },
    {
        "key": "ctrl+g ctrl+d",
        "command": "gitlens.externalDiffAll",
    },
    {
        "key": "ctrl+g ,",
        "command": "gitlens.diffWithPrevious",
        "when": "editorTextFocus"
    },
    {
        "key": "ctrl+g .",
        "command": "gitlens.diffWithNext",
        "when": "editorTextFocus"
    },
    {
        "key": "ctrl+g ,",
        "command": "gitlens.diffWithPreviousInDiffRight",
        "when": "editorTextFocus && isInDiffRightEditor && config.gitlens.keymap == 'chorded' && gitlens:activeFileStatus =~ /tracked/"
    },
    {
        "key": "ctrl+g .",
        "command": "gitlens.diffWithNextInDiffLeft",
        "when": "editorTextFocus && isInDiffLeftEditor && config.gitlens.keymap == 'chorded' && gitlens:activeFileStatus =~ /revision/ && gitlens:activeFileStatus =~ /revision/"
    },
    {
        "key": "ctrl+g shift+.",
        "command": "gitlens.diffWithWorking",
        "when": "editorTextFocus"
    },
    {
        "key": "ctrl+g space",
        "command": "editor.action.dirtydiff.next",
        "when": "editorTextFocus"
    },
    {
        "key": "ctrl+g shift+space",
        "command": "editor.action.dirtydiff.previous",
        "when": "editorTextFocus"
    },
    {
        "key": "ctrl+g a",
        "command": "git.stageAllTracked"
    },
    {
        "key": "ctrl+g enter",
        "command": "git.commit"
    },
    {
        "key": "ctrl+g ctrl+enter",
        "command": "git.push"
    },
    {
        "key": "ctrl+g l",
        "command": "git-graph.view"
    },
    {
        "key": "ctrl+w",
        "command": "-workbench.action.closeActiveEditor",
        "when": "editorFocus"
    },
    {
        "key": "ctrl+w",
        "command": "-workbench.action.closeWindow",
        "when": "!editorIsOpen && !multipleEditorGroups"
    },
    {
        "key": "ctrl+alt+l",
        "command": "toggleFindInSelection",
        "when": "editorFocus"
    },
    {
        "key": "alt+l",
        "command": "-toggleFindInSelection",
        "when": "editorFocus"
    },
    {
        "key": "ctrl+k o",
        "command": "togglePeekWidgetFocus"
    },
    {
        "key": "ctrl+n",
        "command": "selectNextSuggestion",
        "when": "suggestWidgetMultipleSuggestions && suggestWidgetVisible && textInputFocus"
    },
    {
        "key": "ctrl+p",
        "command": "selectPrevSuggestion",
        "when": "suggestWidgetMultipleSuggestions && suggestWidgetVisible && textInputFocus"
    },
    {
        "key": "ctrl+5",
        "command": "editor.action.jumpToBracket",
        "when": "editorTextFocus"
    },
    {
        "key": "ctrl+shift+\\",
        "command": "-editor.action.jumpToBracket",
        "when": "editorTextFocus"
    },
    {
        "key": "alt+5",
        "command": "editor.action.selectToBracket"
    },
    {
        "key": "alt+enter",
        "command": "workbench.action.toggleZenMode"
    },
    {
        "key": "ctrl+alt+c",
        "command": "-latex-workshop.clean",
        "when": "editorTextFocus && !latex-workshop:altkeymap"
    },
    {
        "key": "ctrl+shift+alt+c",
        "command": "copyRelativeFilePath",
    },
    {
        "key": "ctrl+k escape",
        "command": "notifications.clearAll"
    },
    {
        "key": "ctrl+k ctrl+/",
        "command": "list.toggleFilterOnType"
    },
    {
        "key": "ctrl+k enter",
        "command": "notifications.focusToasts",
        "when": "notificationToastsVisible"
    },
    {
        "key": "ctrl+k ctrl+enter",
        "command": "notifications.clearAll",
        "when": "notificationToastsVisible"
    },
    {
        "key": "ctrl+j",
        "command": "editor.action.insertSnippet",
        "when": "editorFocus"
    },
    {
        "key": "ctrl+k ]",
        "command": "editor.unfoldAll",
        "when": "editorFocus"
    },
    {
        "key": "ctrl+k [",
        "command": "editor.foldAll",
        "when": "editorFocus"
    },
    {
        "key": "ctrl+l ctrl+m",
        "command": "-editor.action.toggleTabFocusMode"
    },
    {
        "key": "ctrl+g .",
        "command": "gitlens.diffWithNext",
        "when": "editorTextFocus && !isInDiffEditor && config.gitlens.keymap == 'chorded' && gitlens:activeFileStatus =~ /revision/"
    },
    {
        "key": "ctrl+shift+g .",
        "command": "-gitlens.diffWithNext",
        "when": "editorTextFocus && !isInDiffEditor && config.gitlens.keymap == 'chorded' && gitlens:activeFileStatus =~ /revision/"
    },
    {
        "key": "ctrl+g ,",
        "command": "gitlens.diffWithPrevious",
        "when": "editorTextFocus && !isInDiffEditor && config.gitlens.keymap == 'chorded' && gitlens:activeFileStatus =~ /tracked/"
    },
    {
        "key": "ctrl+shift+g ,",
        "command": "-gitlens.diffWithPrevious",
        "when": "editorTextFocus && !isInDiffEditor && config.gitlens.keymap == 'chorded' && gitlens:activeFileStatus =~ /tracked/"
    },
    {
        "key": "ctrl+g shift+.",
        "command": "gitlens.diffWithWorking",
        "when": "editorTextFocus && !isInDiffEditor && config.gitlens.keymap == 'chorded' && gitlens:activeFileStatus =~ /revision/"
    },
    {
        "key": "ctrl+shift+g shift+[IntlBackslash]",
        "command": "-gitlens.diffWithWorking",
        "when": "editorTextFocus && !isInDiffEditor && config.gitlens.keymap == 'chorded' && gitlens:activeFileStatus =~ /revision/"
    },
    {
        "key": "ctrl+shift+g shift+.",
        "command": "-gitlens.diffWithWorking",
        "when": "editorTextFocus && !isInDiffEditor && config.gitlens.keymap == 'chorded' && gitlens:activeFileStatus =~ /revision/"
    },
    {
        "key": "ctrl+g shift+,",
        "command": "gitlens.diffLineWithPrevious",
        "when": "editorTextFocus && config.gitlens.keymap == 'chorded' && gitlens:activeFileStatus =~ /tracked/"
    },
    {
        "key": "ctrl+shift+g [IntlBackslash]",
        "command": "-gitlens.diffLineWithPrevious",
        "when": "editorTextFocus && config.gitlens.keymap == 'chorded' && gitlens:activeFileStatus =~ /tracked/"
    },
    {
        "key": "ctrl+g w",
        "command": "gitlens.diffLineWithWorking",
        "when": "editorTextFocus && config.gitlens.keymap == 'chorded' && gitlens:activeFileStatus =~ /tracked/"
    },
    {
        "key": "ctrl+shift+g w",
        "command": "-gitlens.diffLineWithWorking",
        "when": "editorTextFocus && config.gitlens.keymap == 'chorded' && gitlens:activeFileStatus =~ /tracked/"
    },
    {
        "key": "ctrl+g /",
        "command": "gitlens.showCommitSearch",
        "when": "gitlens:enabled && config.gitlens.keymap == 'chorded'"
    },
    {
        "key": "ctrl+shift+g /",
        "command": "-gitlens.showCommitSearch",
        "when": "gitlens:enabled && config.gitlens.keymap == 'chorded'"
    },
    {
        "key": "ctrl+g ctrl+c",
        "command": "gitlens.views.compare.selectForCompare",
    },
    {
        "key": "ctrl+g c",
        "command": "gitlens.showQuickCommitFileDetails",
        "when": "editorTextFocus && gitlens:enabled && config.gitlens.keymap == 'chorded'"
    },
    {
        "key": "ctrl+shift+g c",
        "command": "-gitlens.showQuickCommitFileDetails",
        "when": "editorTextFocus && gitlens:enabled && config.gitlens.keymap == 'chorded'"
    },
    {
        "key": "ctrl+g shift+h",
        "command": "gitlens.showQuickRepoHistory",
        "when": "gitlens:enabled && config.gitlens.keymap == 'chorded'"
    },
    {
        "key": "ctrl+shift+g shift+h",
        "command": "-gitlens.showQuickRepoHistory",
        "when": "gitlens:enabled && config.gitlens.keymap == 'chorded'"
    },
    {
        "key": "ctrl+g h",
        "command": "gitlens.showQuickFileHistory",
        "when": "gitlens:enabled && config.gitlens.keymap == 'chorded'"
    },
    {
        "key": "ctrl+shift+g h",
        "command": "-gitlens.showQuickFileHistory",
        "when": "gitlens:enabled && config.gitlens.keymap == 'chorded'"
    },
    {
        "key": "ctrl+g -",
        "command": "gitlens.showLastQuickPick",
        "when": "gitlens:enabled && config.gitlens.keymap == 'chorded'"
    },
    {
        "key": "ctrl+shift+g -",
        "command": "-gitlens.showLastQuickPick",
        "when": "gitlens:enabled && config.gitlens.keymap == 'chorded'"
    },
    {
        "key": "ctrl+g s",
        "command": "gitlens.showQuickRepoStatus",
        "when": "gitlens:enabled && config.gitlens.keymap == 'chorded'"
    },
    {
        "key": "ctrl+g ctrl+s",
        "command": "git.stageSelectedRanges",
        "when": "gitlens:enabled && config.gitlens.keymap == 'chorded'"
    },
    {
        "key": "ctrl+g ctrl+x",
        "command": "git.unstageSelectedRanges",
        "when": "gitlens:enabled && config.gitlens.keymap == 'chorded'"
    },
    {
        "key": "ctrl+shift+g s",
        "command": "-gitlens.showQuickRepoStatus",
        "when": "gitlens:enabled && config.gitlens.keymap == 'chorded'"
    },
    {
        "key": "ctrl+g ctrl+b",
        "command": "git.checkout",
    },
    {
        "key": "ctrl+g b",
        "command": "gitlens.toggleFileBlame",
        "when": "editorTextFocus && config.gitlens.keymap == 'chorded' && gitlens:activeFileStatus =~ /blameable/"
    },
    {
        "key": "ctrl+shift+g b",
        "command": "-gitlens.toggleFileBlame",
        "when": "editorTextFocus && config.gitlens.keymap == 'chorded' && gitlens:activeFileStatus =~ /blameable/"
    },
    {
        "key": "ctrl+g shift+b",
        "command": "gitlens.toggleCodeLens",
        "when": "editorTextFocus && gitlens:canToggleCodeLens && gitlens:enabled && config.gitlens.keymap == 'chorded'"
    },
    {
        "key": "ctrl+shift+g shift+b",
        "command": "-gitlens.toggleCodeLens",
        "when": "editorTextFocus && gitlens:canToggleCodeLens && gitlens:enabled && config.gitlens.keymap == 'chorded'"
    },
    {
        "key": "ctrl+g g",
        "command": "workbench.view.scm",
        "when": "gitlens:enabled && config.gitlens.keymap == 'chorded'"
    },
    {
        "key": "ctrl+g ctrl+g",
        "command": "workbench.view.scm",
        "when": "gitlens:enabled && config.gitlens.keymap == 'chorded'"
    },
    {
        "key": "ctrl+shift+g g",
        "command": "-workbench.view.scm",
        "when": "gitlens:enabled && config.gitlens.keymap == 'chorded'"
    },
    {
        "key": "ctrl+k f",
        "command": "-workbench.action.closeFolder"
    },
    {
        "key": "ctrl+k f",
        "command": "search.action.focusSearchList",
        "when": "hasSearchResult"
    },
    {
        "key": "alt+j",
        "command": "search.focus.nextInputBox",
        "when": "inSearchEditor && inputBoxFocus || inputBoxFocus && searchViewletVisible"
    },
    {
        "key": "alt+k",
        "command": "search.focus.previousInputBox",
        "when": "inSearchEditor && inputBoxFocus || inputBoxFocus && searchViewletVisible"
    },
    {
        "key": "ctrl+k b",
        "command": "breadcrumbs.focusAndSelect",
        "when": "editorFocus"
    },
    {
        "key": "ctrl+\\",
        "command": "-workbench.action.splitEditor"
    },
    {
        "key": "ctrl+[",
        "command": "workbench.action.closeQuickOpen",
        "when": "inQuickOpen"
    },
    {
        "key": "ctrl+0",
        "command": "editor.action.fontZoomReset",
        "when": "editorFocus"
    },
    {
        "key": "alt+left",
        "command": "workbench.action.navigateBack"
    },
    {
        "key": "alt+right",
        "command": "workbench.action.navigateForward"
    },
    {
        "key": "ctrl+alt+left",
        "command": "workbench.action.navigateLeft",
    },
    {
        "key": "ctrl+alt+right",
        "command": "workbench.action.navigateRight",
    },
    {
        "key": "ctrl+alt+h",
        "command": "workbench.action.navigateLeft",
    },
    {
        "key": "ctrl+alt+l",
        "command": "workbench.action.navigateRight",
    },
    {
        "key": "ctrl+alt+k",
        "command": "workbench.action.navigateUp",
    },
    {
        "key": "ctrl+[",
        "command": "list.toggleKeyboardNavigation",
        "when": "explorerViewletFocus"
    },
    {
        "key": "ctrl+t",
        "command": "workbench.action.showEditorsInActiveGroup"
    },
    {
        "key": "alt+c",
        "command": "-workbench.action.terminal.toggleFindCaseSensitive",
        "when": "terminalFocus"
    },
    {
        "key": "ctrl+k down",
        "command": "workbench.action.moveEditorToBelowGroup"
    },
    {
        "key": "ctrl+k left",
        "command": "workbench.action.moveEditorToLeftGroup"
    },
    {
        "key": "ctrl+k right",
        "command": "workbench.action.moveEditorToRightGroup"
    },
    {
        "key": "ctrl+k up",
        "command": "workbench.action.moveEditorToAboveGroup"
    },
    {
        "key": "ctrl+k h",
        "command": "docsView.documentationView.pin",
    },
    {
        "key": "ctrl+k ctrl+h",
        "command": "docsView.documentationView.unpin",
    },
    {
        "key": "ctrl+k a",
        "command": "linenote.addNote"
    },
    {
        "key": "ctrl+k ctrl+a",
        "command": "extension.openGlobalScratchpad"
    },
    {
        "key": "ctrl+alt+c",
        "command": "workbench.action.terminal.toggleFindCaseSensitive",
        "when": "terminalFindWidgetFocused"
    },
    {
        "key": "alt+c",
        "command": "-workbench.action.terminal.toggleFindCaseSensitive",
        "when": "terminalFindWidgetFocused || terminalFocus"
    },
    {
        "key": "ctrl+alt+w",
        "command": "workbench.action.terminal.toggleFindWholeWord",
        "when": "terminalFindWidgetFocused || terminalFocus"
    },
    {
        "key": "alt+w",
        "command": "-workbench.action.terminal.toggleFindWholeWord",
        "when": "terminalFindWidgetFocused || terminalFocus"
    },
    {
        "key": "ctrl+shift+[",
        "command": "-markdown.extension.editing.toggleHeadingDown",
        "when": "editorTextFocus && !editorReadonly && editorLangId == 'markdown'"
    },
    {
        "key": "ctrl+shift+]",
        "command": "-markdown.extension.editing.toggleHeadingUp",
        "when": "editorTextFocus && !editorReadonly && editorLangId == 'markdown'"
    },
    {
        "key": "alt+c",
        "command": "-workbench.action.terminal.toggleFindCaseSensitive",
        "when": "terminalFindFocused || terminalFocus"
    },
    {
        "key": "alt+c",
        "command": "-workbench.action.terminal.toggleFindCaseSensitive",
        "when": "terminalFindFocused && terminalProcessSupported || terminalFocus && terminalProcessSupported"
    },
    {
        "key": "ctrl+f",
        "command": "-workbench.action.terminal.focusFind"
    },
    {
        "key": "enter",
        "command": "search.action.replace",
        "when": "matchFocus && replaceActive && searchViewletVisible"
    },
    {
        "key": "ctrl+d",
        "command": "-extension.simpleVim.scrollDownHalfPage",
        "when": "editorTextFocus && !extension.simpleVim.insertMode"
    },
    {
        "key": "ctrl+[",
        "command": "extension.vim_ctrl+[",
        "when": "editorTextFocus && vim.active && !inDebugRepl"
    },
    {
        "key": "ctrl+[",
        "command": "-extension.vim_ctrl+[",
        "when": "editorTextFocus && vim.active && !inDebugRepl && vim.use<C-[ > "
    },
    {
        "key": "ctrl+alt+f12",
        "command": "editor.action.goToTypeDefinition"
    },
    {
        "key": "ctrl+alt+j",
        "command": "-bookmarks.jumpToPrevious",
        "when": "editorTextFocus"
    },
    {
        "key": "ctrl+alt+j",
        "command": "-editor.action.insertSnippet",
        "when": "editorTextFocus && editorLangId == 'powershell'"
    },
    {
        "key": "ctrl+alt+j",
        "command": "search.action.focusNextSearchResult",
        "when": "hasSearchResult || inSearchEditor"
    },
    {
        "key": "ctrl+alt+k",
        "command": "search.action.focusPreviousSearchResult",
        "when": "hasSearchResult || inSearchEditor"
    },
    {
        "key": "ctrl+k ctrl+j",
        "command": "o.pickProjectAndStart"
    },
    {
        "key": "ctrl+'",
        "command": "whichkey.show"
    },
    // {
    //     "key": "ctrl+[",
    //     "command": "-editor.action.outdentLines",
    //     "when": "editorTextFocus && !editorReadonly"
    // },
    // {
    //     "key": "ctrl+[",
    //     "command": "extension.simpleVim.escapeKey",
    //     "when": "editorFocus"
    // }
]